Han&Chen
…
td1 = unnest_tokens(text_df,word, text, token=tok99)

td2 = td1 %>%
count(doc_id,word,sort=T) %>%
ungroup() %>%
bind_tf_idf(word,doc_id, n)

td_tfidf = arrange(td2,desc(tf_idf))

td_tfidf

## # A tibble: 13,091 x 6
##    doc_id word              n       tf   idf   tf_idf
##     <int> <chr>         <int>    <dbl> <dbl>    <dbl>
##  1      2 "\"\","     318 0.00318  0.693 0.00220 
##  2      2 "\"\","     176 0.00176  0.693 0.00122 
##  3      1 "\"\","    40 0.00110  0.693 0.000762
##  4      2 "\"chimai\","    99 0.000988 0.693 0.000685
##  5      2 "\"\","      75 0.000749 0.693 0.000519
##  6      1 "\"\","      27 0.000742 0.693 0.000514
##  7      1 "\"\","      25 0.000687 0.693 0.000476
##  8      2 "\"\","      64 0.000639 0.693 0.000443
##  9      1 "\"ceo\","       22 0.000604 0.693 0.000419
## 10      2 "\"107\","       57 0.000569 0.693 0.000394
## # ... with 13,081 more rows
…
